\relax 
\@writefile{toc}{\contentsline {section}{\numberline {1}原理}{1}\protected@file@percent }
\@writefile{toc}{\contentsline {subsection}{\numberline {1.1}行列式の解法}{1}\protected@file@percent }
\citation{ガウスの消去法計算量}
\bibcite{ガウスの消去法計算量}{1}
\@writefile{toc}{\contentsline {subsection}{\numberline {1.2}連立一次方程式の解法}{2}\protected@file@percent }
